[{"id":1,"first_name":"Tawsha","last_name":"Danher","email":"tdanher0@google.co.uk", "password":"$2b$10$WfWLOPAmidvbyt7gSyDxo.Bt3F9R.ngnivTPKIu2NTiMkQONJjfx6"},
{"id":2,"first_name":"Veriee","last_name":"Marousek","email":"vmarousek1@weather.com", "password":"$2b$10$WfWLOPAmidvbyt7gSyDxo.Bt3F9R.ngnivTPKIu2NTiMkQONJjfx6"},
{"id":3,"first_name":"Rozanna","last_name":"Dumphy","email":"rdumphy2@indiegogo.com", "password":"$2b$10$WfWLOPAmidvbyt7gSyDxo.Bt3F9R.ngnivTPKIu2NTiMkQONJjfx6"},
{"id":4,"first_name":"Whitman","last_name":"Dobbs","email":"wdobbs3@moonfruit.com", "password":"$2b$10$WfWLOPAmidvbyt7gSyDxo.Bt3F9R.ngnivTPKIu2NTiMkQONJjfx6"},
{"id":5,"first_name":"Magdalena","last_name":"Madgett","email":"mmadgett4@stanford.edu", "password":"$2b$10$WfWLOPAmidvbyt7gSyDxo.Bt3F9R.ngnivTPKIu2NTiMkQONJjfx6"}]
